Calibration Bands • calibrationband
…
#> 
#>  Areas of misscalibration (ordered by length). In addition there are 2 more. 
#> # A tibble: 5 × 2
#>    min_x  max_x
#>    <dbl>  <dbl>
#> 1 0.0396 0.299 
#> 2 0.693  0.951 
#> 3 0.0389 0.0393
#> # … with 2 more rows
…
