…
    #> Areas of misscalibration (ordered by length). In addition there are 3 more. 
    #> # A tibble: 6 × 2
    #>    min_x max_x
    #>    <dbl> <dbl>
    #> 1 0.0344 0.300
    #> 2 0.759  0.946
    #> 3 0.946  0.946
    #> # … with 3 more rows
…
