summarize calibration band object — summary.calibrationband • calibrationband
…
set.seed(123)
s=.8
n=10000
x <- sort(runif(n))

p <- function(x,s){p = 1/(1+((1/x*(1-x))^(s+1)));return(p)}
dat <- data.frame(pr=x, y=rbinom(n,1,p(x,s)))

cb <- calibration_bands(x=dat$pr, y=dat$y,alpha=0.05, method="round", digits =3)

summary(cb)
#> 
#>  Areas of misscalibration (ordered by length). In addition there are 8 more. 
#> # A tibble: 11 × 2
#>    min_x max_x
#>    <dbl> <dbl>
#> 1 0.760  0.967
#> 2 0.0724 0.222
#> 3 0.744  0.746
#> # … with 8 more rows
#> # ℹ Use `print(n = ...)` to see more rows
print(summary(cb), n=5)
#> 
#>  Areas of misscalibration (ordered by length). In addition there are 8 more. 
#> # A tibble: 11 × 2
#>    min_x max_x
#>    <dbl> <dbl>
#> 1 0.760  0.967
#> 2 0.0724 0.222
#> 3 0.744  0.746
#> # … with 8 more rows
#> # ℹ Use `print(n = ...)` to see more rows
…
